{
 "address": "1CodEr7T9xNXSPcwbsvf5fHTqsixDMwDzL",
 "address_index": 80074647,
 "background-color": "#FFF",
 "clone_root": "template-new",
 "cloned_from": "1HeLLo4uzjaLetFx6NH3PMwFP3qbRbTf3D",
 "description": "JSFiddle and CodePen alternative",
 "files": {
  "codemirror/codemirror.css": {
   "sha512": "da039f8e57f21cad5117a3ae97405513996485d39b77715524d25f4c9df31e77",
   "size": 8483
  },
  "codemirror/codemirror.js": {
   "sha512": "4b7e1ecdc7711d29f433d4edb394d29283103b71e67cf888d33af18f9c54c26b",
   "size": 367908
  },
  "codemirror/modes/css.js": {
   "sha512": "685fdb3107c6de58e50232322093c408842100ede25537a07b293201ca0eed0d",
   "size": 38507
  },
  "codemirror/modes/iced-coffeescript.js": {
   "sha512": "abfc9ceb180663e5a114025911603405f53f6b3c0c6528e8723a4d2c5826db05",
   "size": 12150
  },
  "codemirror/modes/javascript.js": {
   "sha512": "c6b1d650cf6981ad7f15fd0f4d9f00911581ae93977c209b2177e45559ba7828",
   "size": 34126
  },
  "codemirror/modes/livescript.js": {
   "sha512": "4e3fd118a9672850d2236553c943542a822489fdb761de56c893b4df1c4566ce",
   "size": 7946
  },
  "codemirror/modes/sass.js": {
   "sha512": "0fe3246210b927106b38bf4a5e998e5fa559bf29ec880d5e4ea68aff7f4da57c",
   "size": 11968
  },
  "codemirror/modes/xml.js": {
   "sha512": "2d9cdc5f4366492cbfc710816709bfe1da43c345f1cb6d2682e6d03f9b351185",
   "size": 12962
  },
  "codemirror/themes/3024-day.css": {
   "sha512": "b9b6f79728d574ad11f21b0fa6626fb4a7765b4a0b46ee39751da23b7b9bfc70",
   "size": 2026
  },
  "codemirror/themes/monokai-sublime.css": {
   "sha512": "5f907baab7185ef47579e01967ba4ca8e95ffac2668f258e056ac50dc4c479fb",
   "size": 1326
  },
  "compilers/babel.js": {
   "sha512": "929ed81cbc6e24325c3b34ad81deafb69c6be1953d9239fbedee9d06c8af4b3f",
   "size": 791236
  },
  "compilers/coffeescript.js": {
   "sha512": "3044977e6806f5e97bec8adfaea04a5c99e06200e49bdcb8d090be4764467374",
   "size": 166158
  },
  "compilers/less.js": {
   "sha512": "dcf2846dcb0bed7bcc22d3c6a16ad384102888b9cdb51cf119dc2ee49cff31a2",
   "size": 424546
  },
  "compilers/livescript.js": {
   "sha512": "2abfda88e1f7bc7204d77d7c432e6facafadd47bc364e5bc8a4cc5e2c2df9d07",
   "size": 319777
  },
  "compilers/sass.js": {
   "sha512": "eac505e2119620196cb83916c20061922d241fd8ccc35c14fa8d1d1d6c38ed6f",
   "size": 3459430
  },
  "css/aside.css": {
   "sha512": "ec55238ce1c708c88bcd65b2484a0b3a4c274bcb75f08b4ce2ae7ef8c79c998b",
   "size": 976
  },
  "css/header.css": {
   "sha512": "d02da0c9bf2fd3d0bc8aa5a71a64c395341e905ea76efaa144122f2bff4c2d58",
   "size": 676
  },
  "css/index.css": {
   "sha512": "fda8bbd720b4fe8755a648e9be0027f7289655cf5095f88cac8633d15d0a8668",
   "size": 238
  },
  "css/loading.css": {
   "sha512": "610691732215a2cb83b0679f8e1625f7b88e8e89af016e6aee002395f75e7a7a",
   "size": 1778
  },
  "css/main.css": {
   "sha512": "85123207f78f6c7b02d2fb09e51c16a44ac4b3c7ac6ef14f0f133d7f78ae9f64",
   "size": 1133
  },
  "dbschema.json": {
   "sha512": "6cf37a10cc723b57559ce265c787a1807deea6e533e9c612eb8f4efd5baaa30f",
   "size": 995
  },
  "img/list.svg": {
   "sha512": "a487d828e9d52f25dc145f40377a25d9093c891dc38d66fb067f4a26dbf44552",
   "size": 792
  },
  "img/my.svg": {
   "sha512": "7505774172b65acc73ca23551e4fd0109e068c9943db7fc51988c948e79af464",
   "size": 812
  },
  "img/new.svg": {
   "sha512": "dc3daae7d633f7947c3777b0aacde7bb5e378ef1f889fb901b42638d1094559e",
   "size": 918
  },
  "img/run.svg": {
   "sha512": "6fba8028b38eb0d42f9b3bd4948ee8a841de2fefaa55af43f93a2aca3ffe9490",
   "size": 507
  },
  "img/save.svg": {
   "sha512": "97f1108c92791a10dbde6b08eb85c03d1656afc0f8d29cd3e91799f75efb0ac7",
   "size": 735
  },
  "img/signin.svg": {
   "sha512": "3b99bb5fff2d88d5afd0eb603868b11603eba432e79fba22d39e9ab81c5ee5f2",
   "size": 284
  },
  "img/theme.svg": {
   "sha512": "f29010a9b1941f7d89ae49a0a87c64a257734ae8a70d259e506fa32b34f51627",
   "size": 1566
  },
  "index.html": {
   "sha512": "810cb9635b4dfbd7f7cb9d161cf3774fcf8dec35e42aa0a8b2f699408cfc0e62",
   "size": 7223
  },
  "js/ZeroAuth.js": {
   "sha512": "22a4304a7f76a94300a7de94374c32b0ef0c10a8ec6c291e90cde58405ca47c0",
   "size": 2179
  },
  "js/ZeroDB.js": {
   "sha512": "a349401de7c15d34fdc0ca169d022b7af330c967169341360de12ede67376f1f",
   "size": 3389
  },
  "js/ZeroFS.js": {
   "sha512": "24e1a1d5ca70ccb3baf5843736959ae2374b2a4c502014d3d4b08a09042cf9b9",
   "size": 2774
  },
  "js/ZeroFrame.js": {
   "sha512": "672291eadcac614188b41e2df665cacf0c3b1b1d775cbf8291abab2d9e669f9d",
   "size": 2502
  },
  "js/ZeroPage.js": {
   "sha512": "7500f0e7c8018ae873a9de6ecfe65a808bcd604cedd2d71d6b2798b36eec997e",
   "size": 7928
  },
  "js/auth.js": {
   "sha512": "fc9a49c4cf695332d185fee5f63b9348d4c6bb1abad873dc622c4c7be45ccb53",
   "size": 4104
  },
  "js/index.js": {
   "sha512": "ff93b6dad06df5e19c477069a4144cd388e6c33b2fad52d33c5ce90f1c7470c3",
   "size": 3378
  },
  "library/angular.js": {
   "sha512": "1c6363e7382f968f17d16b3b0230838ff0b5c5a67f9829bdc9117a6be86db2d3",
   "size": 168828
  },
  "library/jquery-1.12.4.js": {
   "sha512": "308beaab22ca98974f663ede9320197e9c9072aba6a9a4f7763dfe76bb019b7c",
   "size": 97166
  },
  "library/jquery-2.2.4.js": {
   "sha512": "bc8fcdf5a4645443c394b0d1b7222b2e2321a4558cd39cfac18c88aa1abc44d4",
   "size": 85580
  },
  "library/jquery-3.2.1-slim.js": {
   "sha512": "cab8c4afa1d8e3a8b7856ee29ae92566d44ceead70c8d533f2c98a976d77d0e1",
   "size": 69597
  },
  "library/jquery-3.2.1.js": {
   "sha512": "dcff2b5c2b8625d3593a7531ff4ddcd633939cc9f7acfeb79c18a9e6038fdaa9",
   "size": 86659
  },
  "library/knockout-1.3.0.js": {
   "sha512": "9f54abc4eceab2f06874007da24222a9f1e793fbeddafc059b47ca57b8b9ff2b",
   "size": 38393
  },
  "library/knockout-2.3.0.js": {
   "sha512": "42d7dfecdc44f7bf461e18b1e1e70dd51b6f85077f27f0087c369a17f2df8375",
   "size": 42818
  },
  "library/knockout-3.4.2.js": {
   "sha512": "caa7cb8363814e1e54251b4545eae7a4fbb5a89599b6af0c56a838c460da86bb",
   "size": 60476
  },
  "library/lodash-3.10.1.js": {
   "sha512": "a287eea98f00e64284c5d4fda352d9eb82d5485558a4a0244af86f27b0be1734",
   "size": 51038
  },
  "library/lodash-4.17.4.js": {
   "sha512": "1d742b640b294cc87789a5a1e16176dcf13dd8de161887ebe96cc00b846b9bc7",
   "size": 72907
  },
  "library/mootools-1.6.0.js": {
   "sha512": "16df62ae76a92d21b983bb00885559e397142e6ce0a83a45f2e80da8bf28a27d",
   "size": 342681
  },
  "library/prototype-1.5.1.2.js": {
   "sha512": "0924e0876d7fe99ab91f4ee8722e71a9eace52a89da2c4fd01af94d470121692",
   "size": 99938
  },
  "library/prototype-1.6.1.js": {
   "sha512": "8fc5609d650671a62a7ca5f4e07cf37a49cb937fb9357a6c3bd61ad4cf518c32",
   "size": 144726
  },
  "library/prototype-1.7.3.js": {
   "sha512": "4e73d7449e1c03322c62d6d3fe0370646e641656e454c33caa2a8dc73ba89389",
   "size": 207389
  },
  "library/react-0.14.3.js": {
   "sha512": "ef44561704f67569ca2c48e731b14054586480a37710312184f65144939188d2",
   "size": 135618
  },
  "library/react-15.6.1.js": {
   "sha512": "a66e13fda2f2c9175cc65aa6fc5b15acb981ebe252be57775ab8f92ad2945e6c",
   "size": 23051
  },
  "library/react-16.0.0.js": {
   "sha512": "08de64a116ffece3093023319247826040a7d345d4853dcfedcf985136bda3b8",
   "size": 5632
  },
  "library/underscore-1.3.3.js": {
   "sha512": "d6180e80f15622a16e89a4a52d55813a52f42523f152ca945844aaa0d894f221",
   "size": 12851
  },
  "library/underscore-1.4.4.js": {
   "sha512": "a90313e7086eb66154ce5c19e308ede11d9aebb1f3c8f659fa3fdbba9284677b",
   "size": 13450
  },
  "library/underscore-1.5.2.js": {
   "sha512": "5ecae584222e1e019e48c3392fb88feda0d5c070d88f7a21a1b974d212eb4429",
   "size": 14363
  },
  "library/underscore-1.6.0.js": {
   "sha512": "ead3cb802f557765e046b2f941991b932894264396779aa4cdebbcfa687fa982",
   "size": 14687
  },
  "library/underscore-1.7.0.js": {
   "sha512": "7a0db5226c1678b00a10994867ce4d747cee91337cc6898631c6ae4a643dc476",
   "size": 15631
  },
  "library/underscore-1.8.3.js": {
   "sha512": "6f302a9c8045726dc00a8ac9d30e22b68a17057f880d2bf80594733343d115c1",
   "size": 16454
  },
  "library/vue-2.3.4.js": {
   "sha512": "6f9ab2375d1dbd208e6c5e1d923294d8e74213d748c019e7dc2137f76f20a674",
   "size": 79041
  },
  "library/vue-2.4.4.js": {
   "sha512": "789d6630be20ff57572e2bb4b144a1e9ee4856d0a6958f18a2138370ab44cb7b",
   "size": 82703
  },
  "library/vue-2.5.2.js": {
   "sha512": "4b26610785b58bb7fb47b46decd14162430d8d8e5572d1ca964567d11dc248a0",
   "size": 85315
  },
  "library/yui-3.17.2.js": {
   "sha512": "2cc480461db451786372ebddf4684753cd03f207d4c0503d84296aef289a8e16",
   "size": 90149
  },
  "library/yui-3.18.1.js": {
   "sha512": "169e20b645263b65ec1f5759c7eb27479e6c30d5eca6e7cd30c78097987a83ed",
   "size": 91124
  },
  "list/css/main.css": {
   "sha512": "c87684b4d39fde31df1ca50e5bb8bccdec57deef4e8d1680ba9c29255480b859",
   "size": 474
  },
  "list/index.html": {
   "sha512": "bd733c39bad3b6e5795ac3c948a2c7c0e4f3f1050b990a291dbc3cc12e08eb2e",
   "size": 1931
  },
  "list/js/main.js": {
   "sha512": "ef7704fc43fb80523cbb026ba1d0132f18db8597fc77a8193cfc744d9e827bd1",
   "size": 1807
  },
  "my/index.html": {
   "sha512": "f952ccacd94ce0da485b30241231a707afe79296656209a07545362ee8fd5308",
   "size": 1942
  },
  "my/js/main.js": {
   "sha512": "6fc857d4d127ad47d0246d4a7ff5302aec975a4c984478cff56fa034c3bd8ed5",
   "size": 2004
  }
 },
 "ignore": "data/users/.*",
 "includes": {
  "data/users/content.json": {
   "signers": [],
   "signs_required": 1
  }
 },
 "inner_path": "content.json",
 "modified": 1517241514,
 "postmessage_nonce_security": true,
 "signers_sign": "HCNFHvGdsn0zwiTzWB0wYslHVCHc0fC8imWyvEBTntZMX6SVjn6VtVRWCxYMOoIlbB8k1MohZ3Cl+25SMF0yE+Y=",
 "signs": {
  "1CodEr7T9xNXSPcwbsvf5fHTqsixDMwDzL": "HFr4fYR0UudiyoNdC1XtXvPFpgXnIvodGRklUd/eLfhOQI8aIy2wD+fIWeA1OmdcQWHn0CtwFETeXPleqcATCg0="
 },
 "signs_required": 1,
 "title": "CodeR",
 "translate": ["js/all.js"],
 "zeronet_version": "0.6.1"
}